<?xml version="1.0" encoding="UTF-8"?>
<svg width="30px" height="21px" viewBox="0 0 30 21" version="1.1" xmlns="http://www.w3.org/2000/svg" xmlns:xlink="http://www.w3.org/1999/xlink">
    <!-- Generator: Sketch 42 (36781) - http://www.bohemiancoding.com/sketch -->
    <title>vip</title>
    <desc>Created with Sketch.</desc>
    <defs></defs>
    <g id="дашборд-разрешения" stroke="none" stroke-width="1" fill="none" fill-rule="evenodd">
        <g id="дашборд-300" transform="translate(-30.000000, -80.000000)" fill="#C8D0DC">
            <g id="битва-титанов" transform="translate(0.000000, 50.000000)">
                <g id="метка-vip" transform="translate(30.000000, 30.000000)">
                    <path d="M17.85,2.52 L15,0 L12.3,2.52 L15,5.18 L17.85,2.52 L17.85,2.52 Z M2.1,3.36 L0,5.18 L2.1,7 L4.2,5.18 L2.1,3.36 L2.1,3.36 Z M24,19.6 L6,19.6 L6,21 L24,21 L24,19.6 L24,19.6 Z M15,5.46 L9.15,10.64 L3.15,6.72 L6,18.2 L24,18.2 L27,6.86 L21,10.64 L15,5.46 L15,5.46 Z M15,15.4 L12.9,13.44 L15,11.34 L17.1,13.3 L15,15.4 L15,15.4 Z M27.9,3.36 L25.8,5.18 L27.9,7 L30,5.18 L27.9,3.36 L27.9,3.36 Z" id="vip"></path>
                </g>
            </g>
        </g>
    </g>
</svg>